{
  "staticVariable1" : {
    "_id" : "wm-staticVariable1-wm.Variable-1503316402858",
    "name" : "staticVariable1",
    "owner" : "Page",
    "category" : "wm.Variable",
    "dataBinding" : [ ],
    "dataSet" : {
      "dataValue" : ""
    },
    "type" : "string",
    "isList" : false,
    "saveInPhonegap" : false
  },
  "SupplierPortalAttributesData" : {
    "_id" : "wm-SupplierPortalAttributesData-wm.LiveVariable-1503318218675",
    "name" : "SupplierPortalAttributesData",
    "owner" : "Page",
    "category" : "wm.LiveVariable",
    "dataBinding" : [ ],
    "operation" : "read",
    "dataSet" : [ ],
    "type" : "Attributes",
    "isList" : true,
    "saveInPhonegap" : false,
    "maxResults" : 20,
    "designMaxResults" : 10,
    "inFlightBehavior" : "executeLast",
    "startUpdate" : true,
    "autoUpdate" : true,
    "transformationRequired" : false,
    "liveSource" : "supplierPortal",
    "ignoreCase" : true,
    "matchMode" : "start",
    "orderBy" : "attributeId asc",
    "propertiesMap" : {
      "columns" : [ {
        "fieldName" : "attributeId",
        "type" : "integer",
        "fullyQualifiedType" : "integer",
        "columnName" : "AttributeID",
        "isPrimaryKey" : true,
        "notNull" : true,
        "length" : 0,
        "precision" : 10,
        "generator" : "identity",
        "isRelated" : false,
        "defaultValue" : "",
        "scale" : 0
      }, {
        "fieldName" : "attributeName",
        "type" : "string",
        "fullyQualifiedType" : "string",
        "columnName" : "AttributeName",
        "isPrimaryKey" : false,
        "notNull" : false,
        "length" : 255,
        "precision" : 0,
        "generator" : "assigned",
        "isRelated" : false,
        "defaultValue" : "",
        "scale" : 0
      } ],
      "entityName" : "Attributes",
      "fullyQualifiedName" : "com.supplier_portal_eparts_shop.supplierportal.Attributes",
      "tableType" : "TABLE",
      "primaryFields" : [ "attributeId" ]
    },
    "isDefault" : true,
    "bindCount" : 1,
    "tableName" : "Attributes",
    "tableType" : "TABLE",
    "properties" : [ ],
    "relatedTables" : [ ],
    "package" : "com.supplier_portal_eparts_shop.supplierportal.Attributes"
  },
  "SupplierPortalUsersData" : {
    "_id" : "wm-SupplierPortalUsersData1-wm.LiveVariable-1502885682719",
    "name" : "SupplierPortalUsersData",
    "owner" : "Page",
    "category" : "wm.LiveVariable",
    "dataBinding" : [ ],
    "operation" : "read",
    "dataSet" : [ ],
    "type" : "Users",
    "isList" : true,
    "saveInPhonegap" : false,
    "maxResults" : 20,
    "designMaxResults" : 10,
    "inFlightBehavior" : "executeLast",
    "startUpdate" : true,
    "autoUpdate" : true,
    "transformationRequired" : false,
    "liveSource" : "supplierPortal",
    "ignoreCase" : true,
    "matchMode" : "start",
    "orderBy" : "id asc",
    "propertiesMap" : {
      "columns" : [ {
        "fieldName" : "vendors",
        "type" : "integer",
        "fullyQualifiedType" : "integer",
        "columnName" : "VendorID",
        "isPrimaryKey" : false,
        "notNull" : false,
        "length" : 0,
        "precision" : 10,
        "generator" : "assigned",
        "isRelated" : true,
        "defaultValue" : "",
        "relatedTableName" : "Vendors",
        "relatedEntityName" : "Vendors",
        "relatedColumnName" : "vendorId",
        "relatedFieldName" : "vendors.vendorId",
        "isList" : false,
        "targetTable" : "Vendors",
        "scale" : 0,
        "columns" : [ {
          "fieldName" : "regionsByRegion",
          "type" : "integer",
          "fullyQualifiedType" : "integer",
          "columnName" : "Region",
          "isPrimaryKey" : false,
          "notNull" : false,
          "length" : 0,
          "precision" : 10,
          "generator" : "assigned",
          "isRelated" : true,
          "defaultValue" : "",
          "relatedColumnName" : "region",
          "targetTable" : "Regions",
          "scale" : 0
        }, {
          "fieldName" : "vendorId",
          "type" : "integer",
          "fullyQualifiedType" : "integer",
          "columnName" : "VendorID",
          "isPrimaryKey" : true,
          "notNull" : true,
          "length" : 0,
          "precision" : 10,
          "generator" : "identity",
          "isRelated" : false,
          "defaultValue" : "",
          "scale" : 0
        }, {
          "fieldName" : "vendorCode",
          "type" : "string",
          "fullyQualifiedType" : "string",
          "columnName" : "VendorCode",
          "isPrimaryKey" : false,
          "notNull" : false,
          "length" : 10,
          "precision" : 0,
          "generator" : "assigned",
          "isRelated" : false,
          "defaultValue" : "",
          "scale" : 0
        }, {
          "fieldName" : "vendorName",
          "type" : "string",
          "fullyQualifiedType" : "string",
          "columnName" : "VendorName",
          "isPrimaryKey" : false,
          "notNull" : false,
          "length" : 50,
          "precision" : 0,
          "generator" : "assigned",
          "isRelated" : false,
          "defaultValue" : "",
          "scale" : 0
        }, {
          "fieldName" : "address1",
          "type" : "string",
          "fullyQualifiedType" : "string",
          "columnName" : "Address1",
          "isPrimaryKey" : false,
          "notNull" : false,
          "length" : 50,
          "precision" : 0,
          "generator" : "assigned",
          "isRelated" : false,
          "defaultValue" : "",
          "scale" : 0
        }, {
          "fieldName" : "address2",
          "type" : "string",
          "fullyQualifiedType" : "string",
          "columnName" : "Address2",
          "isPrimaryKey" : false,
          "notNull" : false,
          "length" : 50,
          "precision" : 0,
          "generator" : "assigned",
          "isRelated" : false,
          "defaultValue" : "",
          "scale" : 0
        }, {
          "fieldName" : "address3",
          "type" : "string",
          "fullyQualifiedType" : "string",
          "columnName" : "Address3",
          "isPrimaryKey" : false,
          "notNull" : false,
          "length" : 50,
          "precision" : 0,
          "generator" : "assigned",
          "isRelated" : false,
          "defaultValue" : "",
          "scale" : 0
        }, {
          "fieldName" : "address4",
          "type" : "string",
          "fullyQualifiedType" : "string",
          "columnName" : "Address4",
          "isPrimaryKey" : false,
          "notNull" : false,
          "length" : 50,
          "precision" : 0,
          "generator" : "assigned",
          "isRelated" : false,
          "defaultValue" : "",
          "scale" : 0
        }, {
          "fieldName" : "city",
          "type" : "string",
          "fullyQualifiedType" : "string",
          "columnName" : "City",
          "isPrimaryKey" : false,
          "notNull" : false,
          "length" : 50,
          "precision" : 0,
          "generator" : "assigned",
          "isRelated" : false,
          "defaultValue" : "",
          "scale" : 0
        }, {
          "fieldName" : "country",
          "type" : "string",
          "fullyQualifiedType" : "string",
          "columnName" : "Country",
          "isPrimaryKey" : false,
          "notNull" : false,
          "length" : 50,
          "precision" : 0,
          "generator" : "assigned",
          "isRelated" : false,
          "defaultValue" : "",
          "scale" : 0
        }, {
          "fieldName" : "allotment",
          "type" : "integer",
          "fullyQualifiedType" : "integer",
          "columnName" : "Allotment",
          "isPrimaryKey" : false,
          "notNull" : false,
          "length" : 0,
          "precision" : 10,
          "generator" : "assigned",
          "isRelated" : false,
          "defaultValue" : "",
          "scale" : 0
        }, {
          "fieldName" : "state",
          "type" : "string",
          "fullyQualifiedType" : "string",
          "columnName" : "State",
          "isPrimaryKey" : false,
          "notNull" : false,
          "length" : 100,
          "precision" : 0,
          "generator" : "assigned",
          "isRelated" : false,
          "defaultValue" : "",
          "scale" : 0
        } ]
      }, {
        "fieldName" : "id",
        "type" : "integer",
        "fullyQualifiedType" : "integer",
        "columnName" : "ID",
        "isPrimaryKey" : true,
        "notNull" : true,
        "length" : 0,
        "precision" : 10,
        "generator" : "identity",
        "isRelated" : false,
        "defaultValue" : "",
        "scale" : 0
      }, {
        "fieldName" : "username",
        "type" : "string",
        "fullyQualifiedType" : "string",
        "columnName" : "Username",
        "isPrimaryKey" : false,
        "notNull" : false,
        "length" : 255,
        "precision" : 0,
        "generator" : "assigned",
        "isRelated" : false,
        "defaultValue" : "",
        "scale" : 0
      }, {
        "fieldName" : "password",
        "type" : "string",
        "fullyQualifiedType" : "string",
        "columnName" : "Password",
        "isPrimaryKey" : false,
        "notNull" : false,
        "length" : 255,
        "precision" : 0,
        "generator" : "assigned",
        "isRelated" : false,
        "defaultValue" : "",
        "scale" : 0
      }, {
        "fieldName" : "role",
        "type" : "string",
        "fullyQualifiedType" : "string",
        "columnName" : "Role",
        "isPrimaryKey" : false,
        "notNull" : false,
        "length" : 255,
        "precision" : 0,
        "generator" : "assigned",
        "isRelated" : false,
        "defaultValue" : "",
        "scale" : 0
      } ],
      "entityName" : "Users",
      "fullyQualifiedName" : "com.supplier_portal_eparts_shop.supplierportal.Users",
      "tableType" : "TABLE",
      "primaryFields" : [ "id" ]
    },
    "isDefault" : true,
    "bindCount" : 1,
    "tableName" : "Users",
    "tableType" : "TABLE",
    "properties" : [ "vendors" ],
    "relatedTables" : [ {
      "columnName" : "vendors",
      "relationName" : "vendors",
      "type" : "Vendors",
      "watchOn" : "SupplierPortalVendorsData",
      "package" : "com.supplier_portal_eparts_shop.supplierportal.Users"
    } ],
    "filterFields" : { },
    "package" : "com.supplier_portal_eparts_shop.supplierportal.Users"
  },
  "updateUser" : {
    "_id" : "wm-updateUser-wm.LiveVariable-1503316521607",
    "name" : "updateUser",
    "owner" : "Page",
    "category" : "wm.LiveVariable",
    "dataBinding" : [ {
      "target" : "username",
      "value" : "bind:Widgets.updateUserForm.formWidgets.username.datavalue",
      "type" : "string"
    }, {
      "target" : "password",
      "value" : "bind:Widgets.updateUserForm.formWidgets.password.datavalue",
      "type" : "string"
    }, {
      "target" : "role",
      "value" : "bind:Widgets.updateUserForm.formWidgets.role.datavalue",
      "type" : "string"
    }, {
      "target" : "id",
      "value" : "bind:Widgets.updateUserForm.formWidgets.id.datavalue",
      "type" : "number"
    }, {
      "target" : "vendorId",
      "value" : "bind:Widgets.updateUserForm.formWidgets.vendor.datavalue.vendorId",
      "type" : "number"
    } ],
    "operation" : "update",
    "dataSet" : [ ],
    "type" : "Users",
    "isList" : false,
    "saveInPhonegap" : false,
    "maxResults" : 20,
    "designMaxResults" : 10,
    "inFlightBehavior" : "executeLast",
    "startUpdate" : false,
    "autoUpdate" : false,
    "transformationRequired" : false,
    "liveSource" : "supplierPortal",
    "ignoreCase" : true,
    "matchMode" : "start",
    "orderBy" : "id asc",
    "propertiesMap" : {
      "columns" : [ {
        "fieldName" : "vendors",
        "type" : "integer",
        "fullyQualifiedType" : "integer",
        "columnName" : "VendorID",
        "isPrimaryKey" : false,
        "notNull" : false,
        "length" : 0,
        "precision" : 10,
        "generator" : "assigned",
        "isRelated" : true,
        "defaultValue" : "",
        "relatedTableName" : "Vendors",
        "relatedEntityName" : "Vendors",
        "relatedColumnName" : "vendorId",
        "relatedFieldName" : "vendors.vendorId",
        "isList" : false,
        "targetTable" : "Vendors",
        "scale" : 0,
        "columns" : [ {
          "fieldName" : "regionsByRegion",
          "type" : "integer",
          "fullyQualifiedType" : "integer",
          "columnName" : "Region",
          "isPrimaryKey" : false,
          "notNull" : false,
          "length" : 0,
          "precision" : 10,
          "generator" : "assigned",
          "isRelated" : true,
          "defaultValue" : "",
          "relatedColumnName" : "region",
          "targetTable" : "Regions",
          "scale" : 0
        }, {
          "fieldName" : "vendorId",
          "type" : "integer",
          "fullyQualifiedType" : "integer",
          "columnName" : "VendorID",
          "isPrimaryKey" : true,
          "notNull" : true,
          "length" : 0,
          "precision" : 10,
          "generator" : "identity",
          "isRelated" : false,
          "defaultValue" : "",
          "scale" : 0
        }, {
          "fieldName" : "vendorCode",
          "type" : "string",
          "fullyQualifiedType" : "string",
          "columnName" : "VendorCode",
          "isPrimaryKey" : false,
          "notNull" : false,
          "length" : 10,
          "precision" : 0,
          "generator" : "assigned",
          "isRelated" : false,
          "defaultValue" : "",
          "scale" : 0
        }, {
          "fieldName" : "vendorName",
          "type" : "string",
          "fullyQualifiedType" : "string",
          "columnName" : "VendorName",
          "isPrimaryKey" : false,
          "notNull" : false,
          "length" : 50,
          "precision" : 0,
          "generator" : "assigned",
          "isRelated" : false,
          "defaultValue" : "",
          "scale" : 0
        }, {
          "fieldName" : "address1",
          "type" : "string",
          "fullyQualifiedType" : "string",
          "columnName" : "Address1",
          "isPrimaryKey" : false,
          "notNull" : false,
          "length" : 50,
          "precision" : 0,
          "generator" : "assigned",
          "isRelated" : false,
          "defaultValue" : "",
          "scale" : 0
        }, {
          "fieldName" : "address2",
          "type" : "string",
          "fullyQualifiedType" : "string",
          "columnName" : "Address2",
          "isPrimaryKey" : false,
          "notNull" : false,
          "length" : 50,
          "precision" : 0,
          "generator" : "assigned",
          "isRelated" : false,
          "defaultValue" : "",
          "scale" : 0
        }, {
          "fieldName" : "address3",
          "type" : "string",
          "fullyQualifiedType" : "string",
          "columnName" : "Address3",
          "isPrimaryKey" : false,
          "notNull" : false,
          "length" : 50,
          "precision" : 0,
          "generator" : "assigned",
          "isRelated" : false,
          "defaultValue" : "",
          "scale" : 0
        }, {
          "fieldName" : "address4",
          "type" : "string",
          "fullyQualifiedType" : "string",
          "columnName" : "Address4",
          "isPrimaryKey" : false,
          "notNull" : false,
          "length" : 50,
          "precision" : 0,
          "generator" : "assigned",
          "isRelated" : false,
          "defaultValue" : "",
          "scale" : 0
        }, {
          "fieldName" : "city",
          "type" : "string",
          "fullyQualifiedType" : "string",
          "columnName" : "City",
          "isPrimaryKey" : false,
          "notNull" : false,
          "length" : 50,
          "precision" : 0,
          "generator" : "assigned",
          "isRelated" : false,
          "defaultValue" : "",
          "scale" : 0
        }, {
          "fieldName" : "country",
          "type" : "string",
          "fullyQualifiedType" : "string",
          "columnName" : "Country",
          "isPrimaryKey" : false,
          "notNull" : false,
          "length" : 50,
          "precision" : 0,
          "generator" : "assigned",
          "isRelated" : false,
          "defaultValue" : "",
          "scale" : 0
        }, {
          "fieldName" : "allotment",
          "type" : "integer",
          "fullyQualifiedType" : "integer",
          "columnName" : "Allotment",
          "isPrimaryKey" : false,
          "notNull" : false,
          "length" : 0,
          "precision" : 10,
          "generator" : "assigned",
          "isRelated" : false,
          "defaultValue" : "",
          "scale" : 0
        }, {
          "fieldName" : "state",
          "type" : "string",
          "fullyQualifiedType" : "string",
          "columnName" : "State",
          "isPrimaryKey" : false,
          "notNull" : false,
          "length" : 100,
          "precision" : 0,
          "generator" : "assigned",
          "isRelated" : false,
          "defaultValue" : "",
          "scale" : 0
        } ]
      }, {
        "fieldName" : "id",
        "type" : "integer",
        "fullyQualifiedType" : "integer",
        "columnName" : "ID",
        "isPrimaryKey" : true,
        "notNull" : true,
        "length" : 0,
        "precision" : 10,
        "generator" : "identity",
        "isRelated" : false,
        "defaultValue" : "",
        "scale" : 0
      }, {
        "fieldName" : "username",
        "type" : "string",
        "fullyQualifiedType" : "string",
        "columnName" : "Username",
        "isPrimaryKey" : false,
        "notNull" : false,
        "length" : 255,
        "precision" : 0,
        "generator" : "assigned",
        "isRelated" : false,
        "defaultValue" : "",
        "scale" : 0
      }, {
        "fieldName" : "password",
        "type" : "string",
        "fullyQualifiedType" : "string",
        "columnName" : "Password",
        "isPrimaryKey" : false,
        "notNull" : false,
        "length" : 255,
        "precision" : 0,
        "generator" : "assigned",
        "isRelated" : false,
        "defaultValue" : "",
        "scale" : 0
      }, {
        "fieldName" : "role",
        "type" : "string",
        "fullyQualifiedType" : "string",
        "columnName" : "Role",
        "isPrimaryKey" : false,
        "notNull" : false,
        "length" : 255,
        "precision" : 0,
        "generator" : "assigned",
        "isRelated" : false,
        "defaultValue" : "",
        "scale" : 0
      } ],
      "entityName" : "Users",
      "fullyQualifiedName" : "com.supplier_portal_eparts_shop.supplierportal.Users",
      "tableType" : "TABLE",
      "primaryFields" : [ "id" ]
    },
    "tableName" : "Users",
    "tableType" : "TABLE",
    "properties" : [ "vendors" ],
    "relatedTables" : [ {
      "columnName" : "vendors",
      "relationName" : "vendors",
      "type" : "Vendors",
      "watchOn" : "SupplierPortalVendorsData",
      "package" : "com.supplier_portal_eparts_shop.supplierportal.Users"
    } ],
    "filterFields" : { },
    "inputFields" : { },
    "package" : "com.supplier_portal_eparts_shop.supplierportal.Users"
  }
}